{
  "project_info": {
    "project_number": "127030548822",
    "firebase_url": "https://com-brejaclub.firebaseio.com",
    "project_id": "com-brejaclub",
    "storage_bucket": "com-brejaclub.appspot.com"
  },
  "client": [
    {
      "client_info": {
        "mobilesdk_app_id": "1:127030548822:android:8050f8a0b41f3214cfdef7",
        "android_client_info": {
          "package_name": "com.brejaclub"
        }
      },
      "oauth_client": [
        {
          "client_id": "127030548822-i0agl9j5k28j72h1nmvl0s5at2sf8br3.apps.googleusercontent.com",
          "client_type": 3
        }
      ],
      "api_key": [
        {
          "current_key": "AIzaSyBINnOhAgdVAUB7L6feyMyty3TGg0_ebF8"
        }
      ],
      "services": {
        "appinvite_service": {
          "other_platform_oauth_client": [
            {
              "client_id": "127030548822-i0agl9j5k28j72h1nmvl0s5at2sf8br3.apps.googleusercontent.com",
              "client_type": 3
            }
          ]
        }
      }
    }
  ],
  "configuration_version": "1"
}